…
    ## `summarise()` has grouped output by 'Education'. You can override using the `.groups` argument.

``` r
education_level <- rev(c('NA', 'No high school diploma',
                                     'High school', 'Associate degree',
                                     'Some college, no degree', 
                                     'Bachelor\'s degree', 'Master\'s degree',
                                     'Professional degree', 'Doctorate degree'))

df_cps_ed_ind
```

    ## # A tibble: 120 x 3
    ## # Groups:   Education [9]
    ##    Education        Industry                                    Total.Count
    ##    <chr>            <chr>                                             <int>
    ##  1 Associate degree Agriculture, forestry, fishing, and hunting         140
    ##  2 Associate degree Armed forces                                          3
    ##  3 Associate degree Construction                                        437
    ##  4 Associate degree Educational and health services                    1985
    ##  5 Associate degree Financial                                           444
    ##  6 Associate degree Information                                         143
    ##  7 Associate degree Leisure and hospitality                             468
    ##  8 Associate degree Manufacturing                                       696
    ##  9 Associate degree Mining                                               44
    ## 10 Associate degree NA                                                 2705
    ## # ... with 110 more rows

``` r
df_cps_ed_ind
```

    ## # A tibble: 120 x 3
    ## # Groups:   Education [9]
    ##    Education        Industry                                    Total.Count
    ##    <chr>            <chr>                                             <int>
    ##  1 Associate degree Agriculture, forestry, fishing, and hunting         140
    ##  2 Associate degree Armed forces                                          3
    ##  3 Associate degree Construction                                        437
    ##  4 Associate degree Educational and health services                    1985
    ##  5 Associate degree Financial                                           444
    ##  6 Associate degree Information                                         143
    ##  7 Associate degree Leisure and hospitality                             468
    ##  8 Associate degree Manufacturing                                       696
    ##  9 Associate degree Mining                                               44
    ## 10 Associate degree NA                                                 2705
    ## # ... with 110 more rows
…
